asgiref==3.6.0
autopep8==2.0.2
black==23.3.0
click==8.1.3
colorama==0.4.6
Django==4.1.7
django-autoslug==1.9.9
mypy-extensions==1.0.0
packaging==23.0
pathspec==0.11.1
platformdirs==3.2.0
psycopg2==2.9.5
pycodestyle==2.10.0
python-decouple==3.8
sqlparse==0.4.3
tzdata==2023.3
